64 -24 888
144 -72 -72 680
992
-64 -72 120 -96 608
-432 16 -24 496
-800 184
-72 512 -8 -56 -24 32 -40 -56 128
-32 -64 48 -32 784
-992
-512 -120 -104 232
-456 -16 504
-16 32 -72 -64 8 -48 -120 -96 -112 352
-960 24
-120 -96 -104 -128 -120 384
-16 32 -48 -64 800
